{
  "swagger": "2.0",
  "info": {
    "title": "common.proto",
    "version": "version not set"
  },
  "schemes": [
    "http",
    "https"
  ],
  "consumes": [
    "application/json"
  ],
  "produces": [
    "application/json"
  ],
  "paths": {
    "/v1/heartbeat": {
      "get": {
        "operationId": "GetHeartBeat",
        "responses": {
          "200": {
            "description": "",
            "schema": {
              "$ref": "#/definitions/msgsEmptyMessage"
            }
          }
        },
        "tags": [
          "HeartBeat"
        ]
      }
    }
  },
  "definitions": {
    "msgsEmptyMessage": {
      "type": "object"
    }
  }
}
